{
  "ranges": [
    [
      1600,
      0.31400001049041748,
      3.7925000190734863
    ],
    [
      956,
      3.4730000495910645,
      5.4899997711181641
    ]
  ],
  "servo_values": {
    "1600": [
      [
        0.73400002717971802,
        0.95899999141693115,
        1.1840000152587891,
        1.4075000286102295,
        1.6399999856948853,
        1.8799999952316284,
        2.1140000820159912,
        2.3550000190734863,
        2.5980000495910645,
        2.8250000476837158,
        3.0529999732971191,
        3.3614999055862427,
        3.5269999504089355,
        3.7925000190734863
      ],
      [
        5470,
        6500,
        7230,
        7650,
        8250,
        9110,
        9873,
        10313,
        11093,
        11653,
        12343,
        12943,
        13543,
        13723
      ]
    ],
    "956": [
      [
        3.4730000495910645,
        3.6400001049041748,
        3.9579999446868896,
        4.2280001640319824,
        4.4200000762939453,
        4.7435002326965332,
        5.0430002212524414,
        5.3179998397827148,
        5.4899997711181641
      ],
      [
        10957,
        11484,
        11836,
        11953,
        12543,
        12823,
        13063,
        13403,
        15000
      ]
    ]
  }
}